{"packages":[{"name":"psr\/log","description":"Common interface for logging libraries","url":"https:\/\/packagist.org\/packages\/psr\/log","downloads":11800296,"favers":37}, {"name":"monolog\/monolog","description":"Sends your logs to files, sockets, inboxes, databases and various web services","url":"https:\/\/packagist.org\/packages\/monolog\/monolog","downloads":12306034,"favers":92}],"total":58487,"next":"https:\/\/packagist.org\/explore\/popular.json?page=2"}